Validation Functions for the Warlpiri Dictionary • yinarlingi
…
\me jampaly(pa) (N) (PV): (La,Wi,Y)
\gl sharp, pointed \egl
\dm spatial: tactile: \edm
...

The yinarlingi test suite uses the test_code1_ordered() function to catch such cases (notice code1_ok is FALSE on the third line):

library(yinarlingi)

# Get local path to the yinarlingi-provided file, 'wlp-lexicon_invalid-sequence.txt'
invalid_lexicon_path <- system.file("extdata/wlp-lexicon_invalid-sequence.txt", package = "yinarlingi")

test_code1_ordered(invalid_lexicon_path)
#> # A tibble: 25 x 5
#> # Groups:   me_start [1]
#>     line data                          code1 me_start             code1_ok
#>    <int> <chr>                         <chr> <chr>                <lgl>   
#>  1     1 "\\me jampaly(pa) (N) (PV): … me    "1 : \\me jampaly(p… TRUE    
#>  2     2 "\\gl sharp, pointed \\egl"   gl    "1 : \\me jampaly(p… TRUE    
#>  3     3 "\\dm spatial: tactile: \\ed… dm    "1 : \\me jampaly(p… FALSE   
#>  4     4 "\\rv sharp \\erv"            rv    "1 : \\me jampaly(p… NA      
#>  5     5 "\\eg"                        eg    "1 : \\me jampaly(p… NA      
#>  6     6 "\\we Karlangu ka karri jamp… we    "1 : \\me jampaly(p… NA      
#>  7     7 "\\et The digging stick is s… et    "1 : \\me jampaly(p… NA      
#>  8     8 "\\eeg"                       eeg   "1 : \\me jampaly(p… NA      
#>  9     9 "\\ant jampilypa, munju \\ea… ant   "1 : \\me jampaly(p… NA      
#> 10    10 "\\cf jaarn-karri-mi, lirra … cf    "1 : \\me jampaly(p… NA      
#> # ... with 15 more rows
…
